"Rotterdam","51.913540","4.478712","Schiedamsesingel 183"
"Amsterdam","52.363326","4.978385","Pedro de Medinalaan 11"
"Utrecht","52.068993","5.110142","Kanaalweg 17/J"
"Breda ","51.594904","4.823378","Takkebijsters 9A"
